Project 2: Modeling, Testing, and Predicting
…
Find one dataset with at least 5 variables (ideally more!) that you want to use to build models/test hypotheses. At least one should be categorical (with 2-5 groups, ideally; definitely fewer than 10) and at least two should be numeric (taking on more than 10 distinct values). Ideally, at least of your variables will be binary (if not, you will have to create one by discretizing a numeric or collapsing levels of a categorical). You will need a minimum of 40 observations (at least 10 observations for every explanatory variable you have, ideally 20+ observations/variable).

It is perfectly fine to use either dataset (or the merged dataset, or a subset of your variables) from Project 1. However, I might encourage you to diversify things a bit and choose a different dataset to work with (particularly if the variables did not reveal interesting associations in Project 1 that you want to follow up with). The only requirement/restriction is that you may not use data from any examples we have done in class or lab. It would be a good idea to pick more cohesive data this time around (i.e., variables that you actually thing might have a relationship you would want to test). Think more along the lines of your Biostats project.

Again, you can use data from anywhere you want (see bottom for resources)! If you want a quick way to see whether a built-in (R) dataset has binary and/or character (i.e., categorical) variables, check out this list: https://vincentarelbundock.github.io/Rdatasets/datasets.html.

Guidelines and Rubric

0. (5 pts) Introduce your dataset and each of your variables (or just your main variables if you have lots) in a paragraph. What are they measuring? How many observations?

library(fivethirtyeight)
bechdel

## # A tibble: 1,794 x 15
## year imdb title test clean_test binary budget domgross
intgross code budget_2013
## <int> <chr> <chr> <chr> <ord> <chr> <int> <dbl> <dbl>
<chr> <int>
## 1 2013 tt17… 21 &… nota… notalk FAIL 1.30e7 25682380
4.22e7 2013… 13000000
## 2 2012 tt13… Dred… ok-d… ok PASS 4.50e7 13414714 4.09e7
2012… 45658735
## 3 2013 tt20… 12 Y… nota… notalk FAIL 2.00e7 53107035
1.59e8 2013… 20000000
## 4 2013 tt12… 2 Gu… nota… notalk FAIL 6.10e7 75612460
1.32e8 2013… 61000000
## 5 2013 tt04… 42 men men FAIL 4.00e7 95020213 9.50e7
2013… 40000000
## 6 2013 tt13… 47 R… men men FAIL 2.25e8 38362475 1.46e8
2013… 225000000
## 7 2013 tt16… A Go… nota… notalk FAIL 9.20e7 67349198
3.04e8 2013… 92000000
## 8 2013 tt21… Abou… ok-d… ok PASS 1.20e7 15323921 8.73e7
2013… 12000000
## 9 2013 tt18… Admi… ok ok PASS 1.30e7 18007317 1.80e7
2013… 13000000
## 10 2013 tt18… Afte… nota… notalk FAIL 1.30e8 60522097
2.44e8 2013… 130000000
## # … with 1,784 more rows, and 4 more variables:
…
